N;Pri.;Date;Inf.;Hierarchical 0;Hierarchical 1;Hierarchical 2;Device Name;Description;Alarm;Value;Responsible;
TODO: _alert_hdl:_add_value_1;60;2023.04.04 14:33:07.515;TODO: _alert_hdl:_add_value_2;SPS Zone 5;BA5;18kV stable;EMD100/A5;Defaut Io>;Defaut;1;EL/OP;
TODO: _alert_hdl:_add_value_1;60;2023.03.23 10:23:54.748;TODO: _alert_hdl:_add_value_2;SPS Zone 5;BA5;18kV stable;EMD100/A5;Alarme Rearmement Moteur;Alarme;1;EL/OP;
TODO: _alert_hdl:_add_value_1;70;2023.03.23 10:23:54.748;TODO: _alert_hdl:_add_value_2;SPS Zone 5;BA5;18kV stable;EMD100/A5;Defaut 67 dir. busbar;Defaut;1;EL/OP;
